<svg width="21" height="18" viewBox="0 0 21 18" fill="none" xmlns="http://www.w3.org/2000/svg">
<path d="M19.1225 4.94253L19.9208 5.25946L19.1225 4.94253ZM17.4558 9.14043L18.2541 9.45735V9.45735L17.4558 9.14043ZM3.78571 2.73238L2.939 2.87642L2.939 2.87645L3.78571 2.73238ZM5.07142 10.2886L4.22472 10.4327L4.22472 10.4327L5.07142 10.2886ZM1 0.194352C0.525659 0.194352 0.141129 0.578881 0.141129 1.05322C0.141129 1.52756 0.525659 1.91209 1 1.91209V0.194352ZM3.74531 2.49491L4.59201 2.35087L4.59201 2.35084L3.74531 2.49491ZM5.25469 11.3656L6.10139 11.2216L6.10139 11.2216L5.25469 11.3656ZM18.3242 4.6256L16.6576 8.8235L18.2541 9.45735L19.9208 5.25946L18.3242 4.6256ZM16.6576 8.8235C16.5409 9.11742 16.1424 9.42971 15.5585 9.42971V11.1475C16.6963 11.1475 17.8263 10.5348 18.2541 9.45735L16.6576 8.8235ZM17.2251 3.59125C17.674 3.59125 18.0121 3.77502 18.1959 3.98916C18.3718 4.19404 18.4082 4.41415 18.3242 4.6256L19.9208 5.25946C20.2685 4.38361 20.0387 3.49864 19.4993 2.87027C18.9678 2.25116 18.1414 1.87351 17.2251 1.87351V3.59125ZM3.78571 3.59125H17.2251V1.87351H3.78571V3.59125ZM15.5585 9.42971H5.07142V11.1475H15.5585V9.42971ZM16 11.9485H7.23459V13.6662H16V11.9485ZM1.76541 0.194352H1V1.91209H1.76541V0.194352ZM4.63241 2.58834L4.59201 2.35087L2.8986 2.63895L2.939 2.87642L4.63241 2.58834ZM5.91812 10.1445L4.63241 2.58831L2.939 2.87645L4.22472 10.4327L5.91812 10.1445ZM6.10139 11.2216L5.91812 10.1445L4.22472 10.4327L4.40799 11.5097L6.10139 11.2216ZM1.76541 1.91209C2.45397 1.91209 2.84535 2.32597 2.89861 2.63898L4.59201 2.35084C4.36375 1.00938 3.06745 0.194352 1.76541 0.194352V1.91209ZM7.23459 11.9485C6.54603 11.9485 6.15465 11.5346 6.10139 11.2216L4.40799 11.5097C4.63624 12.8512 5.93255 13.6662 7.23459 13.6662V11.9485ZM9.14113 14.4865C9.14113 14.8049 8.77705 15.3068 8 15.3068V17.0245C9.43209 17.0245 10.8589 16.0228 10.8589 14.4865H9.14113ZM8 15.3068C7.22295 15.3068 6.85887 14.8049 6.85887 14.4865H5.14113C5.14113 16.0228 6.56791 17.0245 8 17.0245V15.3068ZM6.85887 14.4865C6.85887 14.168 7.22295 13.6662 8 13.6662V11.9485C6.56791 11.9485 5.14113 12.9502 5.14113 14.4865H6.85887ZM8 13.6662C8.77705 13.6662 9.14113 14.168 9.14113 14.4865H10.8589C10.8589 12.9502 9.43209 11.9485 8 11.9485V13.6662ZM17.1411 14.4865C17.1411 14.8049 16.777 15.3068 16 15.3068V17.0245C17.4321 17.0245 18.8589 16.0228 18.8589 14.4865H17.1411ZM16 15.3068C15.223 15.3068 14.8589 14.8049 14.8589 14.4865H13.1411C13.1411 16.0228 14.5679 17.0245 16 17.0245V15.3068ZM14.8589 14.4865C14.8589 14.168 15.223 13.6662 16 13.6662V11.9485C14.5679 11.9485 13.1411 12.9502 13.1411 14.4865H14.8589ZM16 13.6662C16.777 13.6662 17.1411 14.168 17.1411 14.4865H18.8589C18.8589 12.9502 17.4321 11.9485 16 11.9485V13.6662Z" fill="white"/>
</svg>
